EESchema Schematic File Version 4
LIBS:19-228 column-cache
EELAYER 30 0
EELAYER END
$Descr A4 11693 8268
encoding utf-8
Sheet 1 1
Title ""
Date ""
Rev ""
Comp ""
Comment1 ""
Comment2 ""
Comment3 ""
Comment4 ""
$EndDescr
$Comp
L power:VCC #PWR0101
U 1 1 5D57E4CD
P 1850 700
F 0 "#PWR0101" H 1850 550 50  0001 C CNN
F 1 "VCC" H 1867 873 50  0000 C CNN
F 2 "" H 1850 700 50  0001 C CNN
F 3 "" H 1850 700 50  0001 C CNN
	1    1850 700 
	1    0    0    -1  
$EndComp
$Comp
L power:GND #PWR0102
U 1 1 5D57E9AC
P 1850 1200
F 0 "#PWR0102" H 1850 950 50  0001 C CNN
F 1 "GND" H 1855 1027 50  0000 C CNN
F 2 "" H 1850 1200 50  0001 C CNN
F 3 "" H 1850 1200 50  0001 C CNN
	1    1850 1200
	1    0    0    -1  
$EndComp
$Comp
L power:VCC #PWR0105
U 1 1 5D57F7C7
P 2750 700
F 0 "#PWR0105" H 2750 550 50  0001 C CNN
F 1 "VCC" H 2767 873 50  0000 C CNN
F 2 "" H 2750 700 50  0001 C CNN
F 3 "" H 2750 700 50  0001 C CNN
	1    2750 700 
	1    0    0    -1  
$EndComp
$Comp
L power:GND #PWR0106
U 1 1 5D57FB58
P 2750 1200
F 0 "#PWR0106" H 2750 950 50  0001 C CNN
F 1 "GND" H 2755 1027 50  0000 C CNN
F 2 "" H 2750 1200 50  0001 C CNN
F 3 "" H 2750 1200 50  0001 C CNN
	1    2750 1200
	1    0    0    -1  
$EndComp
Text GLabel 1850 800  2    50   Input ~ 0
LIMO_LDR
Text GLabel 1850 900  2    50   Input ~ 0
LOMI_LDR
Text GLabel 1850 1100 2    50   Input ~ 0
CLK_LDR
Text GLabel 2750 1100 0    50   Input ~ 0
CLK_MNN
Text GLabel 2750 800  0    50   Input ~ 0
LIMO_MNN
Text GLabel 2750 900  0    50   Input ~ 0
LOMI_MNN
Text GLabel 1850 1000 2    50   Input ~ 0
MS_LDR
Text GLabel 2750 1000 0    50   Input ~ 0
MS_MNN
Wire Wire Line
	6900 3350 7500 3350
Wire Wire Line
	6900 3950 7500 3950
Wire Wire Line
	6300 3950 6900 3950
Connection ~ 6300 3950
Wire Wire Line
	6300 3350 6900 3350
Connection ~ 6300 3350
Connection ~ 5700 3950
Wire Wire Line
	5700 3350 6300 3350
Wire Wire Line
	5700 3950 6300 3950
Connection ~ 3800 5950
Wire Wire Line
	3700 5950 3800 5950
$Comp
L power:GND #PWR0103
U 1 1 5DACB885
P 3800 5950
F 0 "#PWR0103" H 3800 5700 50  0001 C CNN
F 1 "GND" H 3950 5900 50  0000 C CNN
F 2 "" H 3800 5950 50  0001 C CNN
F 3 "" H 3800 5950 50  0001 C CNN
	1    3800 5950
	1    0    0    -1  
$EndComp
$Comp
L power:GND #PWR0104
U 1 1 5DAC9C5C
P 4300 5350
F 0 "#PWR0104" H 4300 5100 50  0001 C CNN
F 1 "GND" H 4450 5300 50  0000 C CNN
F 2 "" H 4300 5350 50  0001 C CNN
F 3 "" H 4300 5350 50  0001 C CNN
	1    4300 5350
	1    0    0    -1  
$EndComp
$Comp
L power:GND #PWR0115
U 1 1 5DAC9107
P 4300 3150
F 0 "#PWR0115" H 4300 2900 50  0001 C CNN
F 1 "GND" H 4450 3100 50  0000 C CNN
F 2 "" H 4300 3150 50  0001 C CNN
F 3 "" H 4300 3150 50  0001 C CNN
	1    4300 3150
	1    0    0    -1  
$EndComp
Connection ~ 3800 3750
Wire Wire Line
	3700 3750 3800 3750
$Comp
L power:GND #PWR0116
U 1 1 5DAC7951
P 3800 3750
F 0 "#PWR0116" H 3800 3500 50  0001 C CNN
F 1 "GND" H 3950 3700 50  0000 C CNN
F 2 "" H 3800 3750 50  0001 C CNN
F 3 "" H 3800 3750 50  0001 C CNN
	1    3800 3750
	1    0    0    -1  
$EndComp
$Comp
L power:VCC #PWR0117
U 1 1 5DAC291D
P 3800 4150
F 0 "#PWR0117" H 3800 4000 50  0001 C CNN
F 1 "VCC" H 3817 4323 50  0000 C CNN
F 2 "" H 3800 4150 50  0001 C CNN
F 3 "" H 3800 4150 50  0001 C CNN
	1    3800 4150
	1    0    0    -1  
$EndComp
$Comp
L power:VCC #PWR0118
U 1 1 5DAC256F
P 3800 1950
F 0 "#PWR0118" H 3800 1800 50  0001 C CNN
F 1 "VCC" H 3817 2123 50  0000 C CNN
F 2 "" H 3800 1950 50  0001 C CNN
F 3 "" H 3800 1950 50  0001 C CNN
	1    3800 1950
	1    0    0    -1  
$EndComp
Text GLabel 2150 3250 2    50   Input ~ 0
B
Text GLabel 2150 3150 2    50   Input ~ 0
A
Text GLabel 4300 5650 2    50   Input ~ 0
B
Text GLabel 4300 5550 2    50   Input ~ 0
A
Text GLabel 4300 3450 2    50   Input ~ 0
B
Text GLabel 4300 3350 2    50   Input ~ 0
A
Text GLabel 4300 2450 2    50   Input ~ 0
LIMO_SW
Text GLabel 4300 2850 2    50   Input ~ 0
MS_SW
Text GLabel 4300 5050 2    50   Input ~ 0
CLK_SW
Wire Wire Line
	5900 2550 5900 2250
Connection ~ 5400 2550
Wire Wire Line
	5400 2550 5900 2550
Text GLabel 5900 1950 2    50   Input ~ 0
MS_SW
Text GLabel 5900 2150 2    50   Input ~ 0
CLK_SW
Wire Wire Line
	7000 1550 7000 1350
Wire Wire Line
	6400 1550 6400 1150
Wire Wire Line
	6100 1550 6100 1050
Text GLabel 4900 950  0    50   Input ~ 0
LIMO_SW
Text GLabel 4300 4550 2    50   Input ~ 0
LOMI_LED
Text GLabel 4300 4950 2    50   Input ~ 0
CLK_LED
Wire Wire Line
	3100 2550 2150 2550
Wire Wire Line
	3100 4850 3100 2550
Wire Wire Line
	3300 4850 3100 4850
Wire Wire Line
	3200 4450 3300 4450
$Comp
L 4xxx:4052 U4
U 1 1 5DA196AF
P 3800 5050
F 0 "U4" H 4100 5900 50  0000 C CNN
F 1 "4052" H 4050 5800 50  0000 C CNN
F 2 "Package_SO:TSSOP-16_4.4x5mm_P0.65mm" H 3800 5050 50  0001 C CNN
F 3 "http://www.intersil.com/content/dam/Intersil/documents/cd40/cd4051bms-52bms-53bms.pdf" H 3800 5050 50  0001 C CNN
	1    3800 5050
	-1   0    0    -1  
$EndComp
Wire Wire Line
	2150 2250 3300 2250
Text GLabel 5400 3550 0    50   Input ~ 0
LOMI_LED
Text GLabel 5400 3650 0    50   Input ~ 0
CLK_LED
Text GLabel 4300 2650 2    50   Input ~ 0
MS_MNN
Text GLabel 2150 2950 2    50   Input ~ 0
MS_LDR
$Comp
L 4xxx:4052 U3
U 1 1 5D99D649
P 3800 2850
F 0 "U3" H 4100 3700 50  0000 C CNN
F 1 "4052" H 4050 3600 50  0000 C CNN
F 2 "Package_SO:TSSOP-16_4.4x5mm_P0.65mm" H 3800 2850 50  0001 C CNN
F 3 "http://www.intersil.com/content/dam/Intersil/documents/cd40/cd4051bms-52bms-53bms.pdf" H 3800 2850 50  0001 C CNN
	1    3800 2850
	-1   0    0    -1  
$EndComp
Wire Wire Line
	7000 1850 7600 1850
Connection ~ 6900 3950
Connection ~ 6900 3350
Wire Wire Line
	7000 1350 7300 1350
Connection ~ 7000 1350
Wire Wire Line
	6700 1250 6900 1250
Connection ~ 6700 1250
Wire Wire Line
	6400 1150 6500 1150
Connection ~ 6400 1150
Wire Wire Line
	5900 1350 6700 1350
Connection ~ 7000 1850
Wire Wire Line
	6700 1850 7000 1850
Connection ~ 6700 1850
Wire Wire Line
	6400 1850 6700 1850
Connection ~ 6400 1850
Wire Wire Line
	6100 1850 6400 1850
$Comp
L Device:R R4
U 1 1 5D64A758
P 7000 1700
F 0 "R4" H 7070 1746 50  0000 L CNN
F 1 "R" H 7070 1655 50  0000 L CNN
F 2 "Resistor_SMD:R_0603_1608Metric" V 6930 1700 50  0001 C CNN
F 3 "~" H 7000 1700 50  0001 C CNN
	1    7000 1700
	1    0    0    1   
$EndComp
$Comp
L Device:R R3
U 1 1 5D64A4EE
P 6700 1700
F 0 "R3" H 6770 1746 50  0000 L CNN
F 1 "R" H 6770 1655 50  0000 L CNN
F 2 "Resistor_SMD:R_0603_1608Metric" V 6630 1700 50  0001 C CNN
F 3 "~" H 6700 1700 50  0001 C CNN
	1    6700 1700
	1    0    0    1   
$EndComp
$Comp
L Device:R R2
U 1 1 5D64A295
P 6400 1700
F 0 "R2" H 6470 1746 50  0000 L CNN
F 1 "R" H 6470 1655 50  0000 L CNN
F 2 "Resistor_SMD:R_0603_1608Metric" V 6330 1700 50  0001 C CNN
F 3 "~" H 6400 1700 50  0001 C CNN
	1    6400 1700
	1    0    0    1   
$EndComp
$Comp
L Device:R R1
U 1 1 5D649527
P 6100 1700
F 0 "R1" H 6170 1746 50  0000 L CNN
F 1 "R" H 6170 1655 50  0000 L CNN
F 2 "Resistor_SMD:R_0603_1608Metric" V 6030 1700 50  0001 C CNN
F 3 "~" H 6100 1700 50  0001 C CNN
	1    6100 1700
	1    0    0    1   
$EndComp
Wire Wire Line
	5900 1150 6400 1150
Connection ~ 6900 1050
$Comp
L power:VCC #PWR0114
U 1 1 5D610B7C
P 6900 1050
F 0 "#PWR0114" H 6900 900 50  0001 C CNN
F 1 "VCC" H 6917 1223 50  0000 C CNN
F 2 "" H 6900 1050 50  0001 C CNN
F 3 "" H 6900 1050 50  0001 C CNN
	1    6900 1050
	-1   0    0    -1  
$EndComp
$Comp
L power:GND #PWR0113
U 1 1 5D610042
P 7600 1850
F 0 "#PWR0113" H 7600 1600 50  0001 C CNN
F 1 "GND" H 7605 1677 50  0000 C CNN
F 2 "" H 7600 1850 50  0001 C CNN
F 3 "" H 7600 1850 50  0001 C CNN
	1    7600 1850
	-1   0    0    -1  
$EndComp
Wire Wire Line
	7700 1250 7300 1250
Wire Wire Line
	7700 1350 7700 1250
Wire Wire Line
	7300 1150 7300 1250
Wire Wire Line
	6900 1150 7300 1150
Wire Wire Line
	6900 1050 6900 1150
Wire Wire Line
	6500 1050 6900 1050
Wire Wire Line
	6100 1050 5900 1050
$Comp
L Switch:SW_Push SW4
U 1 1 5D604A6D
P 7500 1350
F 0 "SW4" H 7500 1635 50  0000 C CNN
F 1 "SW_Push" H 7500 1544 50  0000 C CNN
F 2 "keyswitches:PG1350_socket" H 7500 1550 50  0001 C CNN
F 3 "~" H 7500 1550 50  0001 C CNN
	1    7500 1350
	1    0    0    -1  
$EndComp
$Comp
L Switch:SW_Push SW3
U 1 1 5D6045BF
P 7100 1250
F 0 "SW3" H 7100 1535 50  0000 C CNN
F 1 "SW_Push" H 7100 1444 50  0000 C CNN
F 2 "keyswitches:PG1350_socket" H 7100 1450 50  0001 C CNN
F 3 "~" H 7100 1450 50  0001 C CNN
	1    7100 1250
	1    0    0    -1  
$EndComp
$Comp
L Switch:SW_Push SW1
U 1 1 5D601937
P 6300 1050
F 0 "SW1" H 6300 1335 50  0000 C CNN
F 1 "SW_Push" H 6300 1244 50  0000 C CNN
F 2 "keyswitches:PG1350_socket" H 6300 1250 50  0001 C CNN
F 3 "~" H 6300 1250 50  0001 C CNN
	1    6300 1050
	1    0    0    -1  
$EndComp
$Comp
L Switch:SW_Push SW2
U 1 1 5D5FCA52
P 6700 1150
F 0 "SW2" H 6700 1435 50  0000 C CNN
F 1 "SW_Push" H 6700 1344 50  0000 C CNN
F 2 "keyswitches:PG1350_socket" H 6700 1350 50  0001 C CNN
F 3 "~" H 6700 1350 50  0001 C CNN
	1    6700 1150
	1    0    0    -1  
$EndComp
Text GLabel 4300 4850 2    50   Input ~ 0
CLK_MNN
Text GLabel 4300 2250 2    50   Input ~ 0
LIMO_MNN
Text GLabel 4300 4450 2    50   Input ~ 0
LOMI_MNN
$Comp
L power:GND #PWR0112
U 1 1 5D5B9000
P 5400 2550
F 0 "#PWR0112" H 5400 2300 50  0001 C CNN
F 1 "GND" H 5405 2377 50  0000 C CNN
F 2 "" H 5400 2550 50  0001 C CNN
F 3 "" H 5400 2550 50  0001 C CNN
	1    5400 2550
	-1   0    0    -1  
$EndComp
$Comp
L power:GND #PWR0111
U 1 1 5D5B8C82
P 1550 3750
F 0 "#PWR0111" H 1550 3500 50  0001 C CNN
F 1 "GND" H 1555 3577 50  0000 C CNN
F 2 "" H 1550 3750 50  0001 C CNN
F 3 "" H 1550 3750 50  0001 C CNN
	1    1550 3750
	1    0    0    -1  
$EndComp
$Comp
L power:VCC #PWR0110
U 1 1 5D5B884D
P 5400 650
F 0 "#PWR0110" H 5400 500 50  0001 C CNN
F 1 "VCC" H 5417 823 50  0000 C CNN
F 2 "" H 5400 650 50  0001 C CNN
F 3 "" H 5400 650 50  0001 C CNN
	1    5400 650 
	-1   0    0    -1  
$EndComp
$Comp
L power:VCC #PWR0109
U 1 1 5D5B8487
P 1550 1950
F 0 "#PWR0109" H 1550 1800 50  0001 C CNN
F 1 "VCC" H 1567 2123 50  0000 C CNN
F 2 "" H 1550 1950 50  0001 C CNN
F 3 "" H 1550 1950 50  0001 C CNN
	1    1550 1950
	1    0    0    -1  
$EndComp
$Comp
L LED:APA102-2020 D1
U 1 1 5D575885
P 7500 3650
F 0 "D1" H 7500 4131 50  0000 C CNN
F 1 "APA102-2020" H 7500 4040 50  0000 C CNN
F 2 "JaxComponentLib:APA102-2020" H 7550 3350 50  0001 L TNN
F 3 "http://www.led-color.com/upload/201604/APA102-2020%20SMD%20LED.pdf" H 7600 3275 50  0001 L TNN
	1    7500 3650
	1    0    0    -1  
$EndComp
$Comp
L power:GND #PWR0107
U 1 1 5D5A5402
P 5700 3950
F 0 "#PWR0107" H 5700 3700 50  0001 C CNN
F 1 "GND" H 5700 3750 50  0000 C CNN
F 2 "" H 5700 3950 50  0001 C CNN
F 3 "" H 5700 3950 50  0001 C CNN
	1    5700 3950
	1    0    0    -1  
$EndComp
$Comp
L LED:APA102-2020 D4
U 1 1 5D59D1C9
P 5700 3650
F 0 "D4" H 5700 4150 50  0000 C CNN
F 1 "APA102-2020" H 5700 4040 50  0000 C CNN
F 2 "JaxComponentLib:APA102-2020" H 5750 3350 50  0001 L TNN
F 3 "http://www.led-color.com/upload/201604/APA102-2020%20SMD%20LED.pdf" H 5800 3275 50  0001 L TNN
	1    5700 3650
	1    0    0    -1  
$EndComp
$Comp
L LED:APA102-2020 D3
U 1 1 5D59706A
P 6300 3650
F 0 "D3" H 6300 4131 50  0000 C CNN
F 1 "APA102-2020" H 6300 4040 50  0000 C CNN
F 2 "JaxComponentLib:APA102-2020" H 6350 3350 50  0001 L TNN
F 3 "http://www.led-color.com/upload/201604/APA102-2020%20SMD%20LED.pdf" H 6400 3275 50  0001 L TNN
	1    6300 3650
	1    0    0    -1  
$EndComp
$Comp
L LED:APA102-2020 D2
U 1 1 5D596AA7
P 6900 3650
F 0 "D2" H 6900 4131 50  0000 C CNN
F 1 "APA102-2020" H 6900 4040 50  0000 C CNN
F 2 "JaxComponentLib:APA102-2020" H 6950 3350 50  0001 L TNN
F 3 "http://www.led-color.com/upload/201604/APA102-2020%20SMD%20LED.pdf" H 7000 3275 50  0001 L TNN
	1    6900 3650
	1    0    0    -1  
$EndComp
Text GLabel 2150 2650 2    50   Input ~ 0
CLK_LDR
Text GLabel 2150 2850 2    50   Input ~ 0
LOMI_LDR
Text GLabel 2150 2750 2    50   Input ~ 0
LIMO_LDR
$Comp
L 74xx:74LS165 U2
U 1 1 5D57810F
P 5400 1550
F 0 "U2" H 5700 2400 50  0000 C CNN
F 1 "74LS165" H 5650 2300 50  0000 C CNN
F 2 "Package_SO:TSSOP-16_4.4x5mm_P0.65mm" H 5400 1550 50  0001 C CNN
F 3 "http://www.ti.com/lit/gpn/sn74LS165" H 5400 1550 50  0001 C CNN
	1    5400 1550
	-1   0    0    -1  
$EndComp
$Comp
L power:VCC #PWR0108
U 1 1 5D9851A9
P 5250 3350
F 0 "#PWR0108" H 5250 3200 50  0001 C CNN
F 1 "VCC" H 5250 3500 50  0000 C CNN
F 2 "" H 5250 3350 50  0001 C CNN
F 3 "" H 5250 3350 50  0001 C CNN
	1    5250 3350
	1    0    0    -1  
$EndComp
Connection ~ 5700 3350
Wire Wire Line
	5700 3350 5250 3350
Connection ~ 7300 1250
Wire Wire Line
	6700 1350 7000 1350
Connection ~ 6900 1150
Connection ~ 6100 1050
Wire Wire Line
	5900 1250 6700 1250
Wire Wire Line
	3300 2450 3300 2650
Wire Wire Line
	2150 2450 3300 2450
Wire Wire Line
	2150 2350 3200 2350
Wire Wire Line
	3200 2350 3200 4450
$Comp
L MCU_Microchip_ATtiny:ATtiny841-SSU U1
U 1 1 5D9C866E
P 1550 2850
F 0 "U1" H 1021 2896 50  0000 R CNN
F 1 "ATtiny841-SSU" H 1021 2805 50  0000 R CNN
F 2 "Package_DFN_QFN:QFN-20-1EP_3x3mm_P0.45mm_EP1.6x1.6mm" H 1550 2850 50  0001 C CIN
F 3 "http://ww1.microchip.com/downloads/en/DeviceDoc/Atmel-8495-8-bit-AVR-Microcontrollers-ATtiny441-ATtiny841_Datasheet.pdf" H 1550 2850 50  0001 C CNN
	1    1550 2850
	1    0    0    -1  
$EndComp
Wire Wire Line
	6700 1250 6700 1550
$Comp
L Connector_Generic:Conn_01x01 J1
U 1 1 5DBDD2B7
P 2350 3450
F 0 "J1" H 2430 3492 50  0000 L CNN
F 1 "Conn_01x01" H 2430 3401 50  0000 L CNN
F 2 "TestPoint:TestPoint_Pad_D1.5mm" H 2350 3450 50  0001 C CNN
F 3 "~" H 2350 3450 50  0001 C CNN
	1    2350 3450
	1    0    0    -1  
$EndComp
$Comp
L JaxParts:ModPort_Leader P1
U 1 1 5DD4FD03
P 1500 950
F 0 "P1" H 1500 1500 50  0000 C CNN
F 1 "ModPort_Leader" H 1500 1400 50  0000 C CNN
F 2 "JaxComponentLib:6pad_small" H 1350 1100 50  0001 C CNN
F 3 "" H 1350 1100 50  0001 C CNN
	1    1500 950 
	1    0    0    -1  
$EndComp
$Comp
L JaxPartsLib:ModPort_Minion P2
U 1 1 5DD55788
P 3100 950
F 0 "P2" H 3278 996 50  0000 L CNN
F 1 "ModPort_Minion" H 3278 905 50  0000 L CNN
F 2 "JaxComponentLib:6pad_small" H 2950 1100 50  0001 C CNN
F 3 "" H 2950 1100 50  0001 C CNN
	1    3100 950 
	1    0    0    -1  
$EndComp
$EndSCHEMATC
